////////////////////////////////////////////////////////////////////////////////
/*
 *
 *	Release note for DINC on 20151002 for Asiatelecom
 *
 */
////////////////////////////////////////////////////////////////////////////////
Release version: 19c598aff00c14b7c9a7fbb3a25d9dfe949827d2
Release Date: Fri Oct  2 09:29:35 UTC 2015

Copyright (C) Mobric Inc.

////////////////////////////////////////////////////////////////////////////////
/*
 *
 *	New Features
 *
 */
////////////////////////////////////////////////////////////////////////////////

<None>


////////////////////////////////////////////////////////////////////////////////
/*
 *
 *	Improvements/Enhancements
 *
 */
////////////////////////////////////////////////////////////////////////////////

1. Increasing packet size to 32 bytes in order to prevent packet being dropped due to too small.

2. For those customers who buy cpe before server, we have to have a way to enable dinc automatically.


////////////////////////////////////////////////////////////////////////////////
/*
 *
 *	Bug Fixes
 *
 */
////////////////////////////////////////////////////////////////////////////////

<None>


////////////////////////////////////////////////////////////////////////////////
/*
 *
 *	Removed/Retired Features
 *
 */
////////////////////////////////////////////////////////////////////////////////

<None>


////////////////////////////////////////////////////////////////////////////////
/*
 *
 *	Sub-Modules Modified
 *
 */
////////////////////////////////////////////////////////////////////////////////

1. DINC Module Changed (/dinc/generic/): [YES]

2. HAL module changed (/dinc/hal): [NO]

3. Makefile changed: [NO]

4. Shell Script Changed: [YES]
	
	Implemt function "get_activated_nif", and check dinc_util.sh for detail description.

5. DINS Simulator Server Changed (/dinc/dins.exe): [NO]



////////////////////////////////////////////////////////////////////////////////
/*
 *
 *	Porting Information and Notices
 *
 */
////////////////////////////////////////////////////////////////////////////////

1. You can copy all implementations in HAL to new package
